<?xml version="1.0" encoding="UTF-8" standalone="no"?>
<!DOCTYPE svg PUBLIC "-//W3C//DTD SVG 20010904//EN" "http://www.w3.org/TR/2001/REC-SVG-20010904/DTD/svg10.dtd">
<svg xmlns="http://www.w3.org/2000/svg" version="1.0" width="63.000000pt" height="63.000000pt" viewBox="0 0 63.000000 63.000000" preserveAspectRatio="xMidYMid meet"><g transform="translate(0.000000,63.000000) scale(0.100000,-0.100000)" fill="#1F8295" stroke="none"><path d="M0 314 l0 -317 68 7 c139 14 271 78 376 182 103 103 168 236 182 377 l7 67 -317 0 -316 0 0 -316z" fill="#"/></g></svg>
